{
    "BASE_DENSITY_SI":{
        "pattern":"constexpr float_64 BASE_DENSITY_SI = //**//;",
        "file": "include/picongpu/param/density.param"
    },
    "PPC":{
        "pattern":"static constexpr uint32_t numParticlesPerCell = //**//u; //Particles",
        "file": "include/picongpu/param/particle.param"
    },
    "WAVE_LENGTH_SI":{
        "pattern":"static constexpr float_64 WAVE_LENGTH_SI = //**//;",
        "file": "include/picongpu/param/incidentField.param"
    },
    "PULSE_LENGTH_SI":{
        "pattern":"static constexpr float_64 PULSE_DURATION_SI = //**// * 2 * WAVE_LENGTH_SI / ::picongpu::SI::SPEED_OF_LIGHT_SI;",
        "file": "include/picongpu/param/incidentField.param"
    },
    "PULSE_INIT":{
        "pattern":"static constexpr float_64 PULSE_INIT = //**//;",
        "file": "include/picongpu/param/incidentField.param"
    },
    "PARAM_A0":{
        "pattern":"define PARAM_A0 //**//",
        "file": "include/picongpu/param/incidentField.param"
    },
    "DELTA_T_SI":{
        "pattern":"constexpr float_64 DELTA_T_SI = //**//;",
        "file": "include/picongpu/param/grid.param"
    },
    "CELL_WIDTH_SI":{
        "pattern":"constexpr float_64 CELL_WIDTH_SI = //**//;",
        "file": "include/picongpu/param/grid.param"
    },
    "CELL_HEIGHT_SI":{
        "pattern":"constexpr float_64 CELL_HEIGHT_SI = //**//;",
        "file": "include/picongpu/param/grid.param"
    },
    "TBG_steps":{
        "pattern":"TBG_steps=\"//**//\"",
        "file": "etc/picongpu/1.cfg"
    },
    "MassRatioIons":{
        "pattern":"value_identifier( float_X, MassRatioIons, //**// );",
        "file": "include/picongpu/param/speciesDefinition.param"
    },
    "Temperature":{
        "pattern":"static constexpr float_64 temperature = //**//; //5800K",
        "file": "include/picongpu/param/particle.param"
    }
}